store,websites,attribute_set,type,category_ids,sku,has_options,name,options_container,url_key,url_path,brand,shipping_method,marketplace_state,supplier_product_code,msrp_enabled,msrp_display_actual_price_type,meta_title,meta_description,image,small_image,thumbnail,custom_design,page_layout,gift_wrapping_available,samples_title,links_title,gift_message_available,restrict_groups,price,special_price,cost,msrp,status,visibility,tax_class_id,frontendproduct_product_status,supplier_actived_product,is_deal,creator_id,color,sorting_level_codes,marketplace_fee,sponsored_product,marketplace_fee_type,links_purchased_separately,short_description,description,admin_product_note,delivery_time,shipping_charges,meta_keyword,custom_layout_update,special_from_date,special_to_date,news_from_date,news_to_date,custom_design_from,custom_design_to,qty,min_qty,use_config_min_qty,is_qty_decimal,backorders,use_config_backorders,min_sale_qty,use_config_min_sale_qty,max_sale_qty,use_config_max_sale_qty,is_in_stock,low_stock_date,notify_stock_qty,use_config_notify_stock_qty,manage_stock,use_config_manage_stock,stock_status_changed_auto,use_config_qty_increments,qty_increments,use_config_enable_qty_inc,enable_qty_increments,is_decimal_divided,stock_status_changed_automatically,use_config_enable_qty_increments,product_name,store_id,product_type_id,product_status_changed,product_changed_websites
admin,base,Default,downloadable,"51,95",1000967890,1,Sp-downloadble,Block after Info Column,download-test,download-test.html,nike,flaterate custom product,,,Use config,Use config,,,,,,,No layout updates,No,,Links,No,,123132,,,,Enabled,"Catalog, Search",Taxable Goods,Approved,1,No,puma,#138067,,,No,Percentage,1,"<p>Download test</p>
","<p>Download test</p>
",,,,,,2017-05-19 00:00:00,,,,,,15,0,1,0,0,1,1,1,0,1,1,,,1,0,1,0,1,0,1,0,0,0,1,Download test,0,downloadable,,
