"store","websites","attribute_set","type","category_ids","sku","has_options","name","meta_title","meta_description","image","small_image","thumbnail","url_key","url_path","custom_design","page_layout","options_container","msrp_enabled","msrp_display_actual_price_type","gift_message_available","price","special_price","cost","msrp","status","is_recurring","visibility","tax_class_id","creator_id","description","short_description","meta_keyword","custom_layout_update","special_from_date","special_to_date","news_from_date","news_to_date","custom_design_from","custom_design_to","qty","min_qty","use_config_min_qty","is_qty_decimal","backorders","use_config_backorders","min_sale_qty","use_config_min_sale_qty","max_sale_qty","use_config_max_sale_qty","is_in_stock","low_stock_date","notify_stock_qty","use_config_notify_stock_qty","manage_stock","use_config_manage_stock","stock_status_changed_auto","use_config_qty_increments","qty_increments","use_config_enable_qty_inc","enable_qty_increments","is_decimal_divided","stock_status_changed_automatically","use_config_enable_qty_increments","product_name","store_id","product_type_id","product_status_changed","product_changed_websites","image_label","small_image_label","thumbnail_label","supplier_actived_product","frontendproduct_product_status","brand","is_deal","admin_product_note","website","_media_image","_media_lable","_media_position","_media_is_disabled","supplier_product_code","shipping_method"
"admin","base","Default","virtual","51,54,57","vip000","0","1-Year Members Only Shopping","","","","","","1-year-members-only-shopping","1-year-members-only-shopping.html","","No layout updates","Block after Info Column","Use config","Use config","No","400.0000","","","","Disabled","No","Not Visible Individually","None","","Exclusive discounts on high end designer goods and services for member shoppers.  Sales are held only on the Madison Island website and are first come first serve. Full inventory is available at the start of the sale.","Insider access to top designer labels at warehouse prices--everyday.","","","","","","","","","0.0000","0.0000","1","0","0","1","1.0000","1","0.0000","1","0","2017-03-29 00:24:32","","1","0","1","1","1","0.0000","1","0","0","1","1","1-Year Members Only Shopping","0","virtual","","","","","","","","","","","","","","","","",""
"admin","base","Default","virtual","2,51,54,57","mem000","1","Madison Island VIP Membership - 1 Year","","","/v/i/vip_membership.jpg","/v/i/vip_membership.jpg","/v/i/vip_membership.jpg","madison-island-vip-membership-1-year","madison-island-vip-membership-1-year.html","","No layout updates","Product Info Column","Use config","Use config","No","350.0000","","","","Disabled","Yes","Catalog","None","","Membership is valid for ONE YEAR from the date of purchase. Members are allowed unlimited purchases with VIP pricing, however purchases are not for resale. Madison Island may, in its sole discretion, choose not to process or to cancel your order in certain circumstances. This may occur, for example, when the product you wish to purchase is out of stock, mispriced, or if we suspect the request is fraudulent.
","Gain insider access to the best styles for fashion and home at up to 40% off. Join and discover some fabulous finds. 

Membership will be reviewed and approved by a Sales Associate.
","","","","","","","","","1000.0000","0.0000","1","0","0","1","1.0000","1","0.0000","1","1","","","1","0","1","0","1","0.0000","1","0","0","0","1","Madison Island VIP Membership - 1 Year","0","virtual","","","","","","","","","","","","","","","","",""
"admin","base","Default","virtual","57","subscription-plan-1","0","Subscription Plan Default Plan","","","","","","subscription-plan-default-plan","subscription-plan-default-plan.html","","","Block after Info Column","","","","0.0000","","","","Enabled","","Not Visible Individually","None","","Subscription Virtual Product","Subscription Virtual Product","","","","","","","","","9999.0000","0.0000","1","0","0","1","1.0000","1","0.0000","1","1","","","0","0","0","0","1","0.0000","1","0","0","0","1","Subscription Plan Default Plan","0","virtual","","","","","","1","Approved","","","","","","","","","",""
"admin","base","Default","virtual","","subscription-plan-2","0","Subscription Plan Advanced","","","","","","subscription-plan-advanced","subscription-plan-advanced.html","","","Block after Info Column","","","","200.0000","","","","Enabled","","Not Visible Individually","None","","Subscription Virtual Product","Subscription Virtual Product","","","","","","","","","9999.0000","0.0000","1","0","0","1","1.0000","1","0.0000","1","1","","","0","0","0","0","1","0.0000","1","0","0","0","1","Subscription Plan Advanced","0","virtual","","","","","","1","Approved","","","","","","","","","",""
"admin","base","Default","virtual","","subscription-plan-3","0","Subscription Plan Pro","","","","","","subscription-plan-pro","subscription-plan-pro.html","","","Block after Info Column","","","","300.0000","","","","Enabled","","Not Visible Individually","None","","Subscription Virtual Product","Subscription Virtual Product","","","","","","","","","9999.0000","0.0000","1","0","0","1","1.0000","1","0.0000","1","1","","","0","0","0","0","1","0.0000","1","0","0","0","1","Subscription Plan Pro","0","virtual","","","","","","1","Approved","","","","","","","","","",""
"admin","base","Default","virtual","","subscription-plan-4","0","Subscription Plan Premium","","","","","","subscription-plan-premium","subscription-plan-premium.html","","","Block after Info Column","","","","400.0000","","","","Enabled","","Not Visible Individually","None","","Subscription Virtual Product","Subscription Virtual Product","","","","","","","","","9999.0000","0.0000","1","0","0","1","1.0000","1","0.0000","1","1","","","0","0","0","0","1","0.0000","1","0","0","0","1","Subscription Plan Premium","0","virtual","","","","","","1","Approved","","","","","","","","","",""
"admin","base","Default","virtual","56,82","100043","0","virtual product","","","","","","virtual-product","virtual-product.html","","","Block after Info Column","","","","999.0000","","","","Enabled","","Catalog, Search","Taxable Goods","nike1","<p>Test</p>
","<p>Test</p>
","","","","","","","","","29.0000","0.0000","1","0","0","1","1.0000","1","0.0000","1","1","","","1","0","1","0","1","0.0000","1","0","0","0","1","virtual product","0","virtual","","","","","","1","Approved","Levis","No","","","","","","","",""
"admin","","","","","100043","","","","","","","","","","","","","","","","","","","","","","","","","","","","","","","","","","","","","","","","","","","","","","","","","","","","","","","","","","","","","","","","","","","","","","","","","/f/u/furniture_0002_1.jpeg","","1","0","",""
"admin","","","","","100043","","","","","","","","","","","","","","","","","","","","","","","","","","","","","","","","","","","","","","","","","","","","","","","","","","","","","","","","","","","","","","","","","","","","","","","","","/f/u/furniture_0001_1.jpeg","","2","0","",""
"admin","base","Default","virtual","56,57,58,59,60,66,67,68,69,70,71,72,73,74,75,82,91,92,93","100045","0","Reebok Full Sleeve Printed Men's Jacket 1","","","","","","reebok-full-sleeve-printed-men-s-jacket-1","reebok-full-sleeve-printed-men-s-jacket-1.html","","","Block after Info Column","","","","2500.0000","2000.0000","","","Enabled","","Catalog, Search","Taxable Goods","nike1","<p>Reebok Full Sleeve Printed Men&#39;s Jacket</p>

<p>Reebok Full Sleeve Printed Men&#39;s Jacket</p>

<p>Reebok Full Sleeve Printed Men&#39;s Jacket</p>

<p>Reebok Full Sleeve Printed Men&#39;s Jacket</p>

<p>Reebok Full Sleeve Printed Men&#39;s Jacket</p>

<p>v</p>

<p>Reebok Full Sleeve Printed Men&#39;s Jacket</p>

<p>Reebok Full Sleeve Printed Men&#39;s JacketReebok Full Sleeve Printed Men&#39;s Jacket</p>

<p>Reebok Full Sleeve Printed Men&#39;s Jacket</p>

<p>&nbsp;</p>
","<p>Reebok Full Sleeve Printed Men&#39;s Jacket</p>

<p>Reebok Full Sleeve Printed Men&#39;s Jacket</p>

<p>Reebok Full Sleeve Printed Men&#39;s Jacket</p>

<p>Reebok Full Sleeve Printed Men&#39;s Jacket</p>

<p>Reebok Full Sleeve Printed Men&#39;s Jacket</p>

<p>v</p>
","","","2017-01-01 00:00:00","2017-05-01 00:00:00","","","","","245.0000","0.0000","1","0","0","1","1.0000","1","0.0000","1","1","","","1","0","1","0","1","0.0000","1","0","0","0","1","Reebok Full Sleeve Printed Men's Jacket 1","0","virtual","","","","","","1","Approved","Gucci","No","","","","","","","",""
"admin","base","Default","virtual","56","100046","0","Test product 1","","","/j/s/jsk_1.jpeg","/j/s/jsk_1.jpeg","/j/s/jsk_1.jpeg","test-product-1","test-product-1.html","","","Block after Info Column","","","","9999.0000","8888.0000","","","Enabled","","Catalog, Search","Taxable Goods","nike1","<p>Reebok Full Sleeve Printed Men&#39;s JacketReebok Full Sleeve Printed Men&#39;s JacketReebok Full Sleeve Printed Men&#39;s JacketReebok Full Sleeve Printed Men&#39;s Jacket</p>

<p>&nbsp;</p>

<p>Reebok Full Sleeve Printed Men&#39;s JacketReebok Full Sleeve Printed Men&#39;s JacketReebok Full Sleeve Printed Men&#39;s Jacket</p>
","<p>Reebok Full Sleeve Printed Men&#39;s Jacket</p>

<p>Reebok Full Sleeve Printed Men&#39;s Jacket</p>

<p>Reebok Full Sleeve Printed Men&#39;s Jacket</p>
","","","2017-01-01 00:00:00","2017-05-01 00:00:00","","","","","454.0000","0.0000","1","0","0","1","1.0000","1","0.0000","1","1","","","1","0","1","0","1","0.0000","1","0","0","0","1","Test product 1","0","virtual","","","","","","1","Approved","Gucci","Yes","","","","","","","",""
"admin","base","Default","virtual","56,82","100047","0","test #001","Test","#test","","","","test-001","test-001.html","","","Block after Info Column","","","","10000.0000","9000.0000","","","Enabled","","Catalog, Search","Taxable Goods","nike1","<p>Reebok Full Sleeve Printed Men&#39;s JacketReebok Full Sleeve Printed Men&#39;s JacketReebok Full Sleeve Printed Men&#39;s Jacket</p>

<p>Reebok Full Sleeve Printed Men&#39;s JacketReebok Full Sleeve Printed Men&#39;s JacketReebok Full Sleeve Printed Men&#39;s Jacket</p>

<p>Reebok Full Sleeve Printed Men&#39;s JacketReebok Full Sleeve Printed Men&#39;s JacketReebok Full Sleeve Printed Men&#39;s Jacket</p>

<p>Reebok Full Sleeve Printed Men&#39;s JacketReebok Full Sleeve Printed Men&#39;s JacketReebok Full Sleeve Printed Men&#39;s Jacket</p>

<p>Reebok Full Sleeve Printed Men&#39;s JacketReebok Full Sleeve Printed Men&#39;s JacketReebok Full Sleeve Printed Men&#39;s Jacket</p>

<p>Reebok Full Sleeve Printed Men&#39;s JacketReebok Full Sleeve Printed Men&#39;s JacketReebok Full Sleeve Printed Men&#39;s JacketReebok Full Sleeve Printed Men&#39;s Jacketvv</p>

<p>vvvvvv</p>

<p>Reebok Full Sleeve Printed Men&#39;s JacketReebok Full Sleeve Printed Men&#39;s JacketReebok Full Sleeve Printed Men&#39;s Jacket</p>
","<p>Reebok Full Sleeve Printed Men&#39;s Jacket</p>

<p>Reebok Full Sleeve Printed Men&#39;s Jacket</p>

<p>Reebok Full Sleeve Printed Men&#39;s Jacket</p>

<p>Reebok Full Sleeve Printed Men&#39;s Jacket</p>
","Test 001","","2017-01-01 00:00:00","2017-05-01 00:00:00","","","","","97.0000","0.0000","1","0","0","1","1.0000","1","0.0000","1","1","","","1","0","1","0","1","0.0000","1","0","0","0","1","test #001","0","virtual","","","","","","1","Approved","zara","Yes","","","","","","","",""
"admin","base","Default","virtual","82,93","100050","0","test","","","","","","test","test-1048.html","","","Block after Info Column","","","","100.0000","90.0000","","","Enabled","","Catalog, Search","Taxable Goods","nike1","<p>test</p>
","<p>test</p>
","","","2017-04-25 00:00:00","2017-05-06 00:00:00","","","","","100.0000","0.0000","1","0","0","1","1.0000","1","0.0000","1","1","","","1","0","1","0","1","0.0000","1","0","0","0","1","test","0","virtual","","","","","","1","Approved","","No","","","","","","","",""
"admin","base","Default","virtual","82,91","100054","0","Searchnative item #1","Test , searchnative","Test , searchnativeTest , searchnativeTest , searchnativeTest , searchnativeTest , searchnative","","","","searchnative-item-1","searchnative-item-1.html","","","Block after Info Column","","","","999.0000","900.0000","","","Enabled","","Catalog, Search","Taxable Goods","nike1","<p>Searchnative item 1</p>

<p>Searchnative item 1</p>

<p>Searchnative item 1Searchnative item 1</p>

<p>Searchnative item 1</p>

<p>Searchnative item 1</p>

<p>Searchnative item 1</p>

<p>Searchnative item 1</p>

<p>Searchnative item 1Searchnative item 1</p>

<p>&nbsp;</p>
","<p>Searchnative item 1</p>

<p>Searchnative item 1Searchnative item 1Searchnative item 1Searchnative item 1</p>

<p>Searchnative item 1Searchnative item 1</p>

<p>Searchnative item 1Searchnative item 1</p>

<p>Searchnative item 1Searchnative item 1</p>

<p>Searchnative item 1</p>

<p>Searchnative item 1</p>

<p>&nbsp;</p>
","Test , searchnativeTest , searchnative","","2017-01-01 00:00:00","2017-05-01 00:00:00","","","","","100.0000","0.0000","1","0","0","1","1.0000","1","0.0000","1","1","","","1","0","1","0","1","0.0000","1","0","0","0","1","Searchnative item #1","0","virtual","","","","","","1","Approved","Gucci","No","","","","","","","BNBN#123&",""
"admin","","","","","100054","","","","","","","","","","","","","","","","","","","","","","","","","","","","","","","","","","","","","","","","","","","","","","","","","","","","","","","","","","","","","","","","","","","","","","","","","/w/a/watch_01_2.jpeg","","1","0","",""
"admin","","","","","100054","","","","","","","","","","","","","","","","","","","","","","","","","","","","","","","","","","","","","","","","","","","","","","","","","","","","","","","","","","","","","","","","","","","","","","","","","/i/p/iphone_1.jpeg","","2","0","",""
"admin","base","Default","virtual","57,64","100064","0","virtual Product","virtual Product","virtual Product","","","","virtual-product","virtual-product-1047.html","","","Block after Info Column","","","","56.0000","89.0000","","","Enabled","","Not Visible Individually","Taxable Goods","nike1","<p>virtual Product</p>
","<p>virtual Product</p>
","virtual Product","","2017-05-09 00:00:00","2017-05-12 00:00:00","","","","","8.0000","0.0000","1","0","0","1","1.0000","1","0.0000","1","1","","","1","0","1","0","1","0.0000","1","0","0","0","1","virtual Product","0","virtual","","","","","","1","Pending","Levis","Yes","","","","","","","","FLat RAte"
